(    0) Action:     MoveDown, Sender: Ruleset, Evaluation:   1
(    1) Action:    MoveRight, Sender: Actions, Evaluation:   1
(    2) Action:    MoveRight, Sender: Actions, Evaluation:   1
(    3) Action:    MoveRight, Sender: Actions, Evaluation:   1
(    4) Action:    MoveRight, Sender: Actions, Evaluation:   1
(    5) Action:     MoveLeft, Sender: Actions, Evaluation: 0.5
(    6) Action:     MoveDown, Sender: Actions, Evaluation:   1
(    7) Action:     MoveDown, Sender: Actions, Evaluation:   1
(    8) Action:     MoveDown, Sender: Actions, Evaluation:   1
(    9) Action:     MoveLeft, Sender: Actions, Evaluation:   1
(   10) Action:     MoveLeft, Sender: Actions, Evaluation:   1
(   11) Action:       MoveUp, Sender: Actions, Evaluation:   1
(   12) Action:     MoveDown, Sender: Ruleset, Evaluation: 0.5
(   13) Action:       MoveUp, Sender: Actions, Evaluation: 0.5
(   14) Action:     MoveDown, Sender: Ruleset, Evaluation: 0.3333333
(   15) Action:    MoveRight, Sender: Actions, Evaluation: 0.5
(   16) Action:    MoveRight, Sender: Actions, Evaluation: 0.5
(   17) Action:    MoveRight, Sender: Actions, Evaluation:   1
(   18) Action:    MoveRight, Sender: Actions, Evaluation:   1
(   19) Action:    MoveRight, Sender: Actions, Evaluation:   1
(   20) Action:    MoveRight, Sender: Actions, Evaluation:   1
(   21) Action:     MoveLeft, Sender: Actions, Evaluation: 0.5
(   22) Action:     MoveDown, Sender: Actions, Evaluation:   1
(   23) Action:     MoveDown, Sender: Actions, Evaluation:   1
(   24) Action:     MoveDown, Sender: Actions, Evaluation:   1
(   25) Action:     MoveDown, Sender: Actions, Evaluation:   1
(   26) Action:     MoveDown, Sender: Actions, Evaluation:   1
(   27) Action:     MoveLeft, Sender: Actions, Evaluation:   1
(   28) Action:     MoveLeft, Sender: Actions, Evaluation:   1
(   29) Action:       MoveUp, Sender: Actions, Evaluation:   1
(   30) Action:       MoveUp, Sender: Actions, Evaluation:   1
(   31) Action:       MoveUp, Sender: Actions, Evaluation:   1
(   32) Action:     MoveLeft, Sender: Actions, Evaluation:   1
(   33) Action:     MoveLeft, Sender: Actions, Evaluation:   1
(   34) Action:     MoveLeft, Sender: Actions, Evaluation:   1
(   35) Action:     MoveDown, Sender: Actions, Evaluation:   1
(   36) Action:     MoveDown, Sender: Actions, Evaluation:   1
